{
    "total": 1010,
    "per_page": 15,
    "current_page": 5,
    "last_page": 68,
    "next_page_url": "demo_laravel.json?page=2",
    "prev_page_url": null,
    "from": 1,
    "to": 15,
    "data": [
        {"id" : 1, "name" :  "Fábio"},
        {"id" : 2, "name" :  "Lúcio"},
        {"id" : 3, "name" :  "Guilherme"},
        {"id" : 4, "name" :  "Wallace"}
    ]
}